%YAML 1.1
%TAG !u! tag:unity3d.com,2011:
--- !u!114 &11400000
MonoBehaviour:
  m_ObjectHideFlags: 0
  m_CorrespondingSourceObject: {fileID: 0}
  m_PrefabInstance: {fileID: 0}
  m_PrefabAsset: {fileID: 0}
  m_GameObject: {fileID: 0}
  m_Enabled: 1
  m_EditorHideFlags: 0
  m_Script: {fileID: 11500000, guid: 069c790344689c044aead8981598a3ce, type: 3}
  m_Name: TaskSetting
  m_EditorClassIdentifier: 
  tasks:
  - taskID: cutTree
    gameViewPrefab: {fileID: 5783391951623731378, guid: aeebd7f1701f12e448c263a1dec7bfa3,
      type: 3}
    isUnlocked: 1
    usingTool: {fileID: 11400000, guid: 9a68d864e4cdece4f90dfe9d7bd75232, type: 2}
    rewards:
    - materialReward: {fileID: 11400000, guid: ac1b5883b80a3a248be6c9669ba50dfb, type: 2}
      minRandomRange: 20
      maxRandomRange: 30
  - taskID: gatherRock
    gameViewPrefab: {fileID: 5783391951623731378, guid: 9c1040f9bc29f404bb4d33618bb3c1b3,
      type: 3}
    isUnlocked: 1
    usingTool: {fileID: 11400000, guid: b593c616e7941114198410df941c15bf, type: 2}
    rewards:
    - materialReward: {fileID: 11400000, guid: 98f4c3376db9a92419dc7418edf0429e, type: 2}
      minRandomRange: 20
      maxRandomRange: 30
  - taskID: processLog
    gameViewPrefab: {fileID: 5783391951623731378, guid: 6b1af743a5c20914092ad6c7b94f0b02,
      type: 3}
    isUnlocked: 1
    usingTool: {fileID: 11400000, guid: b593c616e7941114198410df941c15bf, type: 2}
    rewards:
    - materialReward: {fileID: 11400000, guid: 23e3fde5d1f5ffa4e8ae63760d4a944b, type: 2}
      minRandomRange: 15
      maxRandomRange: 20
    - materialReward: {fileID: 11400000, guid: d578e043acd3cf04c90bd5b172065468, type: 2}
      minRandomRange: 5
      maxRandomRange: 15
  - taskID: ProcessRock
    gameViewPrefab: {fileID: 5783391951623731378, guid: bd560b7bea5b3554e9039eeb44f96073,
      type: 3}
    isUnlocked: 1
    usingTool: {fileID: 11400000, guid: b593c616e7941114198410df941c15bf, type: 2}
    rewards:
    - materialReward: {fileID: 11400000, guid: e5b22c87fb7609e4a85f92b2d2b73bc4, type: 2}
      minRandomRange: 15
      maxRandomRange: 20
    - materialReward: {fileID: 11400000, guid: 403ec187f06c9244ea8b7db475021fee, type: 2}
      minRandomRange: 5
      maxRandomRange: 15
  - taskID: BuildHome
    gameViewPrefab: {fileID: 5783391951623731378, guid: dec2bd010e7e4fa418bf9d2c6133b046,
      type: 3}
    isUnlocked: 1
    usingTool: {fileID: 11400000, guid: b593c616e7941114198410df941c15bf, type: 2}
    rewards:
    - materialReward: {fileID: 11400000, guid: e5b22c87fb7609e4a85f92b2d2b73bc4, type: 2}
      minRandomRange: 15
      maxRandomRange: 20
  activeIndex: 0
  quizSetting:
    difficultyModifier: 1
    questionIndex: 0
    answerIndex: 0
    maxCardPerTask: 10
